{
    "AWSTemplateFormatVersion": "2010-09-09",
	"Description" : "AWS CloudFormation template to create IC Economical Policies and associate roles with those Policies  ",
	
	"Parameters" : {

    "ADEnterprisePreFixFederation" : {
      "Type" : "String",
      "Default" : "arn:aws:iam::"
    },
    "ADEnterprisepostFixFederation" : {
      "Type" : "String",
      "Default" : ":saml-provider/AzureADEnterprise"
    }
  }, 
  
  
    "Resources" : {

    "Developer" : {
        "Type" : "AWS::IAM::Role",
        "Properties": {
          "AssumeRolePolicyDocument": {
            "Version": "2012-10-17",
            "Statement": [
              {
                "Effect": "Allow",
                "Principal": {
                  "Federated": { "Fn::Join" : [ "", [{ "Ref" : "ADEnterprisePreFixFederation" },{ "Ref" : "AWS::AccountId" },{ "Ref" : "ADEnterprisepostFixFederation" } ] ] }
                },
                "Action": "sts:AssumeRoleWithSAML",
                "Condition": {
                  "StringEquals": {
                    "SAML:aud": "https://signin.aws.amazon.com/saml"
                  }
                }
              }
            ]
          },
          "ManagedPolicyArns" : ["arn:aws:iam::aws:policy/ReadOnlyAccess",
								                "arn:aws:iam::aws:policy/CloudWatchLogsFullAccess"
								],
		  "MaxSessionDuration" : "43200",
		  "RoleName": "Economical-Developer"
        }
      },
			
			"StandarDevOps" : {
                "Type" : "AWS::IAM::Role",
        "Properties": {
          "AssumeRolePolicyDocument": {
            "Version": "2012-10-17",
            "Statement": [
              {
                "Effect": "Allow",
                "Principal": {
                  "Federated": { "Fn::Join" : [ "", [{ "Ref" : "ADEnterprisePreFixFederation" },{ "Ref" : "AWS::AccountId" },{ "Ref" : "ADEnterprisepostFixFederation" } ] ] }
                },
                "Action": "sts:AssumeRoleWithSAML",
                "Condition": {
                  "StringEquals": {
                    "SAML:aud": "https://signin.aws.amazon.com/saml"
                  }
                }
              }
            ]
          },
          "ManagedPolicyArns" : ["arn:aws:iam::aws:policy/ReadOnlyAccess"],
		  "MaxSessionDuration" : 43200,
		  "RoleName": "Economical-DevOpsProduction"
        }
      },

      "DevOpsProduction": {
             "Type" : "AWS::IAM::Role",
        "Properties": {
          "AssumeRolePolicyDocument": {
            "Version": "2012-10-17",
            "Statement": [
              {
                "Effect": "Allow",
                "Principal": {
                  "Federated": { "Fn::Join" : [ "", [{ "Ref" : "ADEnterprisePreFixFederation" },{ "Ref" : "AWS::AccountId" },{ "Ref" : "ADEnterprisepostFixFederation" } ] ] }
                },
                "Action": "sts:AssumeRoleWithSAML",
                "Condition": {
                  "StringEquals": {
                    "SAML:aud": "https://signin.aws.amazon.com/saml"
                  }
                }
              }
            ]
          },
          "ManagedPolicyArns" : [
                "arn:aws:iam::aws:policy/IAMReadOnlyAccess",
								"arn:aws:iam::aws:policy/PowerUserAccess",
                { "Fn::Join" : ["", ["arn:aws:iam::", {"Ref" : "AWS::AccountId"}, ":policy/CMS-DenyDeveloperManagedBy"]] }
              ],
		  "MaxSessionDuration" : 43200,
		  "RoleName": "Economical-DevOps"
        }
      }
    }
  }
