{
  "min_packer_version": "0.12.0",
  "variables": {
    "aws_region": "{{env `AWS_DEFAULT_REGION`}}",
    "consul_version": "1.5.1",
    "consul_module_version": "v0.6.1",
    "app": "consul"
  },
  "builders": [
    {
      "ami_name": "ic_{{user `app`}}-{{lower (user `env`)}}-{{isotime | clean_resource_name}}",
      "ami_description": "AMI with Consul installed.",
      "instance_type": "t2.micro",
      "region": "{{user `aws_region`}}",
      "name": "amazon-linux-2-ami",
      "type": "amazon-ebs",
      "source_ami" : "ami-03501a4a3ff25cc1c",
      "encrypt_boot" : true,
      "kms_key_id":"arn:aws:kms:ca-central-1:020266858005:key/6344f41d-b112-48df-882d-24dbcc75a7a5",
      "ssh_username": "ec2-user",
      "ssh_interface": "private_ip",
      "iam_instance_profile": "CmigServiceRole",
      "subnet_filter": {
        "filters": {
          "tag:Name": "*-COMMONWELL-HUB-PRIVATE-1A*"
        },
        "most_free": true,
        "random": false
      },
      "security_group_filter": {
        "filters": {
          "group-name": "COMMONWELL-JENKINS-CLIENT-SG"
        }
      },
      "tags":{
        "SourceImage": "amazon-linux-2-ami"
      }
    }
  ],
  "provisioners": [
    {
      "type": "file",
      "source": "support/",
      "destination": "/tmp"
    },
    {
      "type": "shell",
      "inline": [
        "sudo yum update -y",
        "sudo yum install -y git",
        "sudo yum install -y aws curl unzip jq",
        "aws configure set default.region {{user `aws_region`}}"
      ],
      "pause_before": "30s",
      "pause_after": "10s"
    },
    {
      "type": "shell",
      "script": "support/generate-cert.sh",
      "environment_vars": [
        "ENV={{user `env`}}",
        "APP={{user `app`}}"
      ]
    },
    {
      "type": "shell",
      "inline": [
        "git clone --branch {{user `consul_module_version`}} https://github.com/hashicorp/terraform-aws-consul.git /tmp/terraform-aws-consul",
        "/tmp/terraform-aws-consul/modules/install-consul/install-consul --version {{user `consul_version`}} --ca-file-path /tmp/ca.crt.pem --cert-file-path /tmp/consul.crt.pem --key-file-path /tmp/consul.key.pem",
        "/tmp/terraform-aws-consul/modules/install-dnsmasq/install-dnsmasq"
      ]
    }
  ]
}